…
Why are central park and molokai each at one whole number while
waterhole is all over the place when it comes to decimals? There might
be a reporting difference between parks. If we dig into it, central park
and molokai are possible reporting in farenheit, converting to celcius,
then rounding to some set threshold. Waterhole is probs reporting
straight in celcius.

## group_by()

``` r
weather_df |> 
  group_by(name)
```

    ## # A tibble: 2,190 × 7
    ## # Groups:   name [3]
    ##    name           id          date        prcp  tmax  tmin month     
    ##    <chr>          <chr>       <date>     <dbl> <dbl> <dbl> <date>    
    ##  1 CentralPark_NY USW00094728 2021-01-01   157   4.4   0.6 2021-01-01
    ##  2 CentralPark_NY USW00094728 2021-01-02    13  10.6   2.2 2021-01-01
    ##  3 CentralPark_NY USW00094728 2021-01-03    56   3.3   1.1 2021-01-01
    ##  4 CentralPark_NY USW00094728 2021-01-04     5   6.1   1.7 2021-01-01
    ##  5 CentralPark_NY USW00094728 2021-01-05     0   5.6   2.2 2021-01-01
    ##  6 CentralPark_NY USW00094728 2021-01-06     0   5     1.1 2021-01-01
    ##  7 CentralPark_NY USW00094728 2021-01-07     0   5    -1   2021-01-01
    ##  8 CentralPark_NY USW00094728 2021-01-08     0   2.8  -2.7 2021-01-01
    ##  9 CentralPark_NY USW00094728 2021-01-09     0   2.8  -4.3 2021-01-01
    ## 10 CentralPark_NY USW00094728 2021-01-10     0   5    -1.6 2021-01-01
    ## # ℹ 2,180 more rows
…
could also do it by month:

``` r
weather_df |> 
  group_by(month) |> 
  summarize(
    mean_tmax = mean(tmax, na.rm = TRUE), 
    median_tmin = median(tmin, na.rm = TRUE), 
    sd_prcp = sd(prcp, na.rm = TRUE) 
  )
```

    ## # A tibble: 24 × 4
    ##    month      mean_tmax median_tmin sd_prcp
    ##    <date>         <dbl>       <dbl>   <dbl>
    ##  1 2021-01-01     10.9         0.6    113. 
    ##  2 2021-02-01      9.82       -1.65    83.4
    ##  3 2021-03-01     13.7         5      107. 
    ##  4 2021-04-01     16.8         8.05    37.0
    ##  5 2021-05-01     19.6        11.1     48.1
    ##  6 2021-06-01     24.3        17.8     38.6
    ##  7 2021-07-01     25.2        21.1     96.6
    ##  8 2021-08-01     25.2        21.1    141. 
    ##  9 2021-09-01     22.4        17.5    200. 
    ## 10 2021-10-01     18.2        13.9    112. 
    ## # ℹ 14 more rows
…
Once you’ve added the grouping layer on top of your df, there are other
things you can do as well!

## grouped mutates

``` r
weather_df |> 
  group_by(name) |> 
  mutate(mean_tmax = mean(tmax, na.rm = TRUE))
```

    ## # A tibble: 2,190 × 8
    ## # Groups:   name [3]
    ##    name           id          date        prcp  tmax  tmin month      mean_tmax
    ##    <chr>          <chr>       <date>     <dbl> <dbl> <dbl> <date>         <dbl>
    ##  1 CentralPark_NY USW00094728 2021-01-01   157   4.4   0.6 2021-01-01      17.7
    ##  2 CentralPark_NY USW00094728 2021-01-02    13  10.6   2.2 2021-01-01      17.7
    ##  3 CentralPark_NY USW00094728 2021-01-03    56   3.3   1.1 2021-01-01      17.7
    ##  4 CentralPark_NY USW00094728 2021-01-04     5   6.1   1.7 2021-01-01      17.7
    ##  5 CentralPark_NY USW00094728 2021-01-05     0   5.6   2.2 2021-01-01      17.7
    ##  6 CentralPark_NY USW00094728 2021-01-06     0   5     1.1 2021-01-01      17.7
    ##  7 CentralPark_NY USW00094728 2021-01-07     0   5    -1   2021-01-01      17.7
    ##  8 CentralPark_NY USW00094728 2021-01-08     0   2.8  -2.7 2021-01-01      17.7
    ##  9 CentralPark_NY USW00094728 2021-01-09     0   2.8  -4.3 2021-01-01      17.7
    ## 10 CentralPark_NY USW00094728 2021-01-10     0   5    -1.6 2021-01-01      17.7
    ## # ℹ 2,180 more rows
…
